group27_lab6_part3/wavedata.vcd
$date
	Wed Jun 28 08:48:29 2023
$end
$version
	Icarus Verilog
$end
$timescale
	1s
$end
$scope module cpu_tb $end
$var wire 1 ! writemem_t $end
$var wire 32 " writedata_to_mem_t [31:0] $end
$var wire 1 # writecache_t $end
$var wire 8 $ reg1output_t [7:0] $end
$var wire 1 % readmem_t $end
$var wire 1 & readcache_t $end
$var wire 32 ' read_data_from_mem_t [31:0] $end
$var wire 128 ( instruction_memread_data [127:0] $end
$var wire 6 ) instruction_memread_address [5:0] $end
$var wire 1 * instruction_mem_read $end
$var wire 32 + instruction_from_cache [31:0] $end
$var wire 8 , cacheReadOutput_t [7:0] $end
$var wire 1 - busywait_mem_t $end
$var wire 1 . busywait_instruction_mem_t $end
$var wire 1 / busywait_instruction_cache_t $end
$var wire 1 0 busywait_cache_t $end
$var wire 8 1 aluResult_t [7:0] $end
$var wire 6 2 address_from_cache_t [5:0] $end
$var wire 32 3 PC_t [31:0] $end
$var reg 1 4 CLK $end
$var reg 32 5 INSTRUCTION_t [31:0] $end
$var reg 1 6 RESET $end
$var reg 1 7 total_busywait $end
$var integer 32 8 j [31:0] $end
$scope module mycache $end
$var wire 1 4 clock $end
$var wire 1 6 reset $end
$var wire 8 9 writedata [7:0] $end
$var wire 1 # write $end
$var wire 1 & read $end
$var wire 32 : mem_readdata [31:0] $end
$var wire 1 - mem_busywait $end
$var wire 8 ; address [7:0] $end
$var parameter 3 < IDLE_STATE $end
$var parameter 3 = MEM_READ_STATE $end
$var parameter 3 > MEM_WRITE_STATE $end
$var parameter 3 ? WRITE_TO_CACHE_ON_MISS $end
$var reg 1 0 busywait $end
$var reg 8 @ dirty [7:0] $end
$var reg 3 A index [2:0] $end
$var reg 6 B mem_address [5:0] $end
$var reg 1 % mem_read $end
$var reg 1 ! mem_write $end
$var reg 32 C mem_writedata [31:0] $end
$var reg 3 D next_state [2:0] $end
$var reg 2 E offset [1:0] $end
$var reg 1 F readaccess $end
$var reg 8 G readdata [7:0] $end
$var reg 1 H readhit $end
$var reg 3 I state [2:0] $end
$var reg 3 J tag [2:0] $end
$var reg 8 K valid [7:0] $end
$var reg 1 L writeaccess $end
$var reg 1 M writehit $end
$var integer 32 N i [31:0] $end
$upscope $end
$scope module mycpu $end
$var wire 1 7 BUSYWAIT $end
$var wire 1 4 CLK $end
$var wire 32 O INSTRUCTION [31:0] $end
$var wire 1 6 RESET $end
$var wire 8 P memReadOutput [7:0] $end
$var wire 1 Q zerooutput $end
$var wire 8 R twoscomplement [7:0] $end
$var wire 8 S registerInput [7:0] $end
$var wire 8 T reg2output [7:0] $end
$var wire 8 U reg1output_wire [7:0] $end
$var wire 32 V pcUpdaterout [31:0] $end
$var wire 32 W branchResult [31:0] $end
$var wire 8 X alusrc2 [7:0] $end
$var wire 8 Y aluResult_wire [7:0] $end
$var reg 32 Z PC [31:0] $end
$var reg 1 & READMEM $end
$var reg 1 # WRITEMEM $end
$var reg 8 [ aluResult [7:0] $end
$var reg 3 \ aluop [2:0] $end
$var reg 8 ] alusrc1 [7:0] $end
$var reg 8 ^ destination [7:0] $end
$var reg 8 _ immediate [7:0] $end
$var reg 8 ` opcode [7:0] $end
$var reg 8 a reg1output [7:0] $end
$var reg 8 b registerIn [7:0] $end
$var reg 8 c source1 [7:0] $end
$var reg 8 d source2 [7:0] $end
$var reg 1 e write $end
$scope module my_inputForRegisterIn $end
$var wire 32 f INSTRUCTION [31:0] $end
$var wire 8 g MEMREADOUTPUT [7:0] $end
$var wire 8 h OPCODE [7:0] $end
$var wire 8 i ALURESULT [7:0] $end
$var reg 8 j OUTPUTVALUE [7:0] $end
$upscope $end
$scope module my_src2mux $end
$var wire 3 k ALUOP [2:0] $end
$var wire 8 l IMMEDIATE [7:0] $end
$var wire 8 m OPCODE [7:0] $end
$var wire 8 n TWOSCOMPLEMENT [7:0] $end
$var wire 8 o REG2OUTPUT [7:0] $end
$var reg 8 p ALUSRC2 [7:0] $end
$upscope $end
$scope module myalu $end
$var wire 8 q DATA1 [7:0] $end
$var wire 8 r DATA2 [7:0] $end
$var wire 3 s SELECT [2:0] $end
$var reg 8 t RESULT [7:0] $end
$var reg 1 Q ZERO $end
$var integer 32 u a [31:0] $end
$var integer 32 v i [31:0] $end
$upscope $end
$scope module mybranchValue $end
$var wire 8 w OFFSET [7:0] $end
$var wire 32 x PC [31:0] $end
$var reg 32 y OUT [31:0] $end
$upscope $end
$scope module mypcUpdater $end
$var wire 1 4 clk $end
$var wire 32 z pc [31:0] $end
$var wire 1 6 reset $end
$var reg 32 { pcout [31:0] $end
$upscope $end
$scope module myreg_file $end
$var wire 1 4 CLK $end
$var wire 8 | IN [7:0] $end
$var wire 3 } INADDRESS [2:0] $end
$var wire 3 ~ OUT1ADDRESS [2:0] $end
$var wire 3 !" OUT2ADDRESS [2:0] $end
$var wire 1 6 RESET $end
$var wire 1 e WRITE $end
$var reg 8 "" OUT1 [7:0] $end
$var reg 8 #" OUT2 [7:0] $end
$var integer 32 $" l [31:0] $end
$upscope $end
$scope module mytwo $end
$var wire 8 %" NUMBER [7:0] $end
$var reg 8 &" OUT [7:0] $end
$var integer 32 '" i [31:0] $end
$upscope $end
$upscope $end
$scope module mydata_memory $end
$var wire 6 (" address [5:0] $end
$var wire 1 4 clock $end
$var wire 1 % read $end
$var wire 1 6 reset $end
$var wire 1 ! write $end
$var wire 32 )" writedata [31:0] $end
$var reg 1 - busywait $end
$var reg 1 *" readaccess $end
$var reg 32 +" readdata [31:0] $end
$var reg 1 ," writeaccess $end
$var integer 32 -" i [31:0] $end
$upscope $end
$scope module myinstruction_cache $end
$var wire 1 4 clock $end
$var wire 32 ." pc [31:0] $end
$var wire 1 6 reset $end
$var wire 128 /" mem_readdata [127:0] $end
$var wire 1 . mem_busywait $end
$var parameter 2 0" IDLE_STATE $end
$var parameter 2 1" MEM_READ_STATE $end
$var parameter 2 2" WRITE_TO_CACHE_ON_MISS $end
$var reg 1 / busywait $end
$var reg 128 3" data_block_from_cache [127:0] $end
$var reg 1 4" hit $end
$var reg 3 5" index [2:0] $end
$var reg 32 6" instruction [31:0] $end
$var reg 1 * mem_read $end
$var reg 6 7" mem_readaddress [5:0] $end
$var reg 2 8" next_state [1:0] $end
$var reg 2 9" offset [1:0] $end
$var reg 2 :" state [1:0] $end
$var reg 25 ;" tag [24:0] $end
$var reg 25 <" tag_from_cache [24:0] $end
$var reg 8 =" valid [7:0] $end
$var reg 1 >" valid_bit_from_cache $end
$var integer 32 ?" i [31:0] $end
$upscope $end
$scope module myinstruction_memory $end
$var wire 6 @" address [5:0] $end
$var wire 1 4 clock $end
$var wire 1 * read $end
$var reg 1 . busywait $end
$var reg 1 A" readaccess $end
$var reg 128 B" readdata [127:0] $end
$upscope $end
$upscope $end
$scope module cpu_tb $end
$scope module mycpu $end
$scope module myreg_file $end
$var reg 8 C" \registers[0] [7:0] $end
$upscope $end
$upscope $end
$upscope $end
$scope module cpu_tb $end
$scope module mycpu $end
$scope module myreg_file $end
$var reg 8 D" \registers[1] [7:0] $end
$upscope $end
$upscope $end
$upscope $end
$scope module cpu_tb $end
$scope module mycpu $end
$scope module myreg_file $end
$var reg 8 E" \registers[2] [7:0] $end
$upscope $end
$upscope $end
$upscope $end
$scope module cpu_tb $end
$scope module mycpu $end
$scope module myreg_file $end
$var reg 8 F" \registers[3] [7:0] $end
$upscope $end
$upscope $end
$upscope $end
$scope module cpu_tb $end
$scope module mycpu $end
$scope module myreg_file $end
$var reg 8 G" \registers[4] [7:0] $end
$upscope $end
$upscope $end
$upscope $end
$scope module cpu_tb $end
$scope module mycpu $end
$scope module myreg_file $end
$var reg 8 H" \registers[5] [7:0] $end
$upscope $end
$upscope $end
$upscope $end
$scope module cpu_tb $end
$scope module mycpu $end
$scope module myreg_file $end
$var reg 8 I" \registers[6] [7:0] $end
$upscope $end
$upscope $end
$upscope $end
$scope module cpu_tb $end
$scope module mycpu $end
$scope module myreg_file $end
$var reg 8 J" \registers[7] [7:0] $end
$upscope $end
$upscope $end
$upscope $end
$scope module cpu_tb $end
$scope module mycache $end
$var reg 3 K" \tag_array[0] [2:0] $end
$upscope $end
$upscope $end
$scope module cpu_tb $end
$scope module mycache $end
$var reg 3 L" \tag_array[1] [2:0] $end
$upscope $end
$upscope $end
$scope module cpu_tb $end
$scope module mycache $end
$var reg 3 M" \tag_array[2] [2:0] $end
$upscope $end
$upscope $end
$scope module cpu_tb $end
$scope module mycache $end
$var reg 3 N" \tag_array[3] [2:0] $end
$upscope $end
$upscope $end
$scope module cpu_tb $end
$scope module mycache $end
$var reg 3 O" \tag_array[4] [2:0] $end
$upscope $end
$upscope $end
$scope module cpu_tb $end
$scope module mycache $end
$var reg 3 P" \tag_array[5] [2:0] $end
$upscope $end
$upscope $end
$scope module cpu_tb $end
$scope module mycache $end
$var reg 3 Q" \tag_array[6] [2:0] $end
$upscope $end
$upscope $end
$scope module cpu_tb $end
$scope module mycache $end
$var reg 3 R" \tag_array[7] [2:0] $end
$upscope $end
$upscope $end
$scope module cpu_tb $end
$scope module mycache $end
$var reg 32 S" \data_block[0] [31:0] $end
$upscope $end
$upscope $end
$scope module cpu_tb $end
$scope module mycache $end
$var reg 32 T" \data_block[1] [31:0] $end
$upscope $end
$upscope $end
$scope module cpu_tb $end
$scope module mycache $end
$var reg 32 U" \data_block[2] [31:0] $end
$upscope $end
$upscope $end
$scope module cpu_tb $end
$scope module mycache $end
$var reg 32 V" \data_block[3] [31:0] $end
$upscope $end
$upscope $end
$scope module cpu_tb $end
$scope module mycache $end
$var reg 32 W" \data_block[4] [31:0] $end
$upscope $end
$upscope $end
$scope module cpu_tb $end
$scope module mycache $end
$var reg 32 X" \data_block[5] [31:0] $end
$upscope $end
$upscope $end
$scope module cpu_tb $end
$scope module mycache $end
$var reg 32 Y" \data_block[6] [31:0] $end
$upscope $end
$upscope $end
$scope module cpu_tb $end
$scope module mycache $end
$var reg 32 Z" \data_block[7] [31:0] $end
$upscope $end
$upscope $end
$enddefinitions $end
$comment Show the parameter values. $end
$dumpall
b11 2"
b1 1"
b0 0"
b11 ?
b10 >
b1 =
b0 <
$end
#0
$dumpvars
bx Z"
bx Y"
bx X"
bx W"
bx V"
bx U"
bx T"
bx S"
bx R"
bx Q"
bx P"
bx O"
bx N"
bx M"
bx L"
bx K"
bx J"
bx I"
bx H"
bx G"
bx F"
bx E"
bx D"
bx C"
bx B"
0A"
bx @"
bx ?"
x>"
bx ="
bx <"
bx ;"
bx :"
bx 9"
bx 8"
bx 7"
bx 6"
bx 5"
x4"
bx 3"
bx /"
bx ."
bx -"
x,"
bx +"
x*"
bx )"
bx ("
bx '"
bx &"
bx %"
bx $"
bx #"
bx ""
bx !"
bx ~
bx }
bx |
bx {
bx z
bx y
bx x
bx w
bx v
bx u
bx t
bx s
bx r
bx q
bx p
bx o
bx n
bx m
bx l
bx k
bx j
bx i
bx h
bx g
bx f
xe
bx d
bx c
bx b
bx a
bx `
bx _
bx ^
bx ]
bx \
bx [
bx Z
bx Y
bx X
bx W
bx V
bx U
bx T
bx S
bx R
xQ
bx P
bx O
bx N
xM
xL
bx K
bx J
bx I
xH
bx G
xF
bx E
bx D
bx C
bx B
bx A
bx @
bx ;
bx :
bx 9
b1000 8
07
06
bx 5
14
bx 3
bx 2
bx 1
x0
x/
0.
x-
bx ,
bx +
x*
bx )
bx (
bx '
x&
x%
bx $
x#
bx "
x!
$end
#4
04
#5
0M
0H
0*
b0 8"
b0xxxxxxxx "
b0xxxxxxxx C
b0xxxxxxxx )"
0!
0%
b0 D
00
b0 K
b1000 N
0,"
0*"
0-
b100000000 -"
0/
b0 ="
b1000 ?"
b0 :"
b0 I
b11111111111111111111111111111100 V
b11111111111111111111111111111100 {
16
#6
b0 J"
b0 I"
b0 H"
b0 G"
b0 F"
b0 E"
b0 D"
b0 C"
0>"
b11 9"
b111 5"
b1111111111111111111111111 ;"
b1000 $"
b11111111111111111111111111111100 3
b11111111111111111111111111111100 Z
b11111111111111111111111111111100 x
b11111111111111111111111111111100 z
b11111111111111111111111111111100 ."
#7
b0 V
b0 {
#8
14
#11
06
#12
04
#16
14
#17
b0 9"
b0 5"
b0 ;"
b0 3
b0 Z
b0 x
b0 z
b0 ."
#18
b1 8"
b100 V
b100 {
04"
#20
04
#24
0e
17
1A"
1.
1/
1*
b0 )
b0 7"
b0 @"
b11 8"
b1 :"
14
#28
04
#32
14
#36
04
#40
14
#44
04
#48
14
#52
04
#56
14
#60
04
#64
14
#68
04
#72
14
bx01011111 (
bx01011111 /"
bx01011111 B"
#76
04
#80
14
#84
04
#88
14
#92
04
#96
14
#100
04
#104
14
#108
04
#112
14
bx0000000001011111 (
bx0000000001011111 /"
bx0000000001011111 B"
#116
04
#120
14
#124
04
#128
14
#132
04
#136
14
#140
04
#144
14
#148
04
#152
14
bx000000010000000001011111 (
bx000000010000000001011111 /"
bx000000010000000001011111 B"
#156
04
#160
14
#164
04
#168
14
#172
04
#176
14
#180
04
#184
14
#188
04
#192
14
bx10000000000000010000000001011111 (
bx10000000000000010000000001011111 /"
bx10000000000000010000000001011111 B"
#196
04
#200
14
#204
04
#208
14
#212
04
#216
14
#220
04
#224
14
#228
04
#232
14
bx0011110010000000000000010000000001011111 (
bx0011110010000000000000010000000001011111 /"
bx0011110010000000000000010000000001011111 B"
#236
04
#240
14
#244
04
#248
14
#252
04
#256
14
#260
04
#264
14
#268
04
#272
14
bx000000000011110010000000000000010000000001011111 (
bx000000000011110010000000000000010000000001011111 /"
bx000000000011110010000000000000010000000001011111 B"
#276
04
#280
14
#284
04
#288
14
#292
04
#296
14
#300
04
#304
14
#308
04
#312
14
bx00000010000000000011110010000000000000010000000001011111 (
bx00000010000000000011110010000000000000010000000001011111 /"
bx00000010000000000011110010000000000000010000000001011111 B"
#316
04
#320
14
#324
04
#328
14
#332
04
#336
14
#340
04
#344
14
#348
04
#352
14
bx1000000000000010000000000011110010000000000000010000000001011111 (
bx1000000000000010000000000011110010000000000000010000000001011111 /"
bx1000000000000010000000000011110010000000000000010000000001011111 B"
#356
04
#360
14
#364
04
#368
14
#372
04
#376
14
#380
04
#384
14
#388
04
#392
14
bx100011011000000000000010000000000011110010000000000000010000000001011111 (
bx100011011000000000000010000000000011110010000000000000010000000001011111 /"
bx100011011000000000000010000000000011110010000000000000010000000001011111 B"
#396
04
#400
14
#404
04
#408
14
#412
04
#416
14
#420
04
#424
14
#428
04
#432
14
bx00000000100011011000000000000010000000000011110010000000000000010000000001011111 (
bx00000000100011011000000000000010000000000011110010000000000000010000000001011111 /"
bx00000000100011011000000000000010000000000011110010000000000000010000000001011111 B"
#436
04
#440
14
#444
04
#448
14
#452
04
#456
14
#460
04
#464
14
#468
04
#472
14
bx0000001100000000100011011000000000000010000000000011110010000000000000010000000001011111 (
bx0000001100000000100011011000000000000010000000000011110010000000000000010000000001011111 /"
bx0000001100000000100011011000000000000010000000000011110010000000000000010000000001011111 B"
#476
04
#480
14
#484
04
#488
14
#492
04
#496
14
#500
04
#504
14
#508
04
#512
14
bx100000000000001100000000100011011000000000000010000000000011110010000000000000010000000001011111 (
bx100000000000001100000000100011011000000000000010000000000011110010000000000000010000000001011111 /"
bx100000000000001100000000100011011000000000000010000000000011110010000000000000010000000001011111 B"
#516
04
#520
14
#524
04
#528
14
#532
04
#536
14
#540
04
#544
14
#548
04
#552
14
bx00000010100000000000001100000000100011011000000000000010000000000011110010000000000000010000000001011111 (
bx00000010100000000000001100000000100011011000000000000010000000000011110010000000000000010000000001011111 /"
bx00000010100000000000001100000000100011011000000000000010000000000011110010000000000000010000000001011111 B"
#556
04
#560
14
#564
04
#568
14
#572
04
#576
14
#580
04
#584
14
#588
04
#592
14
bx0000000100000010100000000000001100000000100011011000000000000010000000000011110010000000000000010000000001011111 (
bx0000000100000010100000000000001100000000100011011000000000000010000000000011110010000000000000010000000001011111 /"
bx0000000100000010100000000000001100000000100011011000000000000010000000000011110010000000000000010000000001011111 B"
#596
04
#600
14
#604
04
#608
14
#612
04
#616
14
#620
04
#624
14
#628
04
#632
14
bx000001000000000100000010100000000000001100000000100011011000000000000010000000000011110010000000000000010000000001011111 (
bx000001000000000100000010100000000000001100000000100011011000000000000010000000000011110010000000000000010000000001011111 /"
bx000001000000000100000010100000000000001100000000100011011000000000000010000000000011110010000000000000010000000001011111 B"
#636
04
#640
14
#644
04
#648
14
#652
04
#656
14
#660
04
#664
14
#668
04
#672
b0 8"
b11 :"
14
0A"
0.
b10010001000001000000000100000010100000000000001100000000100011011000000000000010000000000011110010000000000000010000000001011111 (
b10010001000001000000000100000010100000000000001100000000100011011000000000000010000000000011110010000000000000010000000001011111 /"
b10010001000001000000000100000010100000000000001100000000100011011000000000000010000000000011110010000000000000010000000001011111 B"
#673
1>"
b0 <"
b1 ="
#674
14"
b10010001000001000000000100000010100000000000001100000000100011011000000000000010000000000011110010000000000000010000000001011111 3"
#675
b111 !"
b0 ~
b1 }
b1011111 _
b1011111 l
b1011111 d
b0 c
b1 ^
b1 w
b10000000000000010000000001011111 5
b10000000000000010000000001011111 O
b10000000000000010000000001011111 f
x4"
b10000000000000010000000001011111 +
b10000000000000010000000001011111 6"
#676
b1011111 u
b1011111 X
b1011111 p
b1011111 r
b0 \
b0 k
b0 s
b10000000 `
b10000000 h
b10000000 m
1e
0L
0F
0#
0&
04
#677
b0 $
b0 9
b0 a
b0 ]
b0 q
b11 E
b111 A
b10 J
b1011111 b
b1011111 |
b1011111 1
b1011111 ;
b1011111 [
b0 T
b0 o
b0 #"
b0 %"
b0 U
b0 ""
b1011111 S
b1011111 j
0Q
b1011111 Y
b1011111 i
b1011111 t
b1000 W
b1000 y
#678
b0 R
b0 n
b0 &"
b1000 '"
#680
07
0/
0*
bx )
bx 7"
bx @"
b0 :"
14
#681
b1 9"
b100 3
b100 Z
b100 x
b100 z
b100 ."
b1011111 D"
#682
b1000 V
b1000 {
14"
#683
b111100 u
b111100 X
b111100 p
b111100 r
b100 !"
b10 }
b111100 _
b111100 l
b111100 d
b10 ^
b10 w
b10000000000000100000000000111100 5
b10000000000000100000000000111100 O
b10000000000000100000000000111100 f
x4"
b10000000000000100000000000111100 +
b10000000000000100000000000111100 6"
b1100 W
b1100 y
#684
b0 E
b1 J
b111100 b
b111100 |
b111100 1
b111100 ;
b111100 [
b111100 S
b111100 j
b111100 Y
b111100 i
b111100 t
04
#685
b10000 W
b10000 y
#688
14
#689
b10 9"
b111100 E"
b1000 3
b1000 Z
b1000 x
b1000 z
b1000 ."
#690
b1100 V
b1100 {
14"
#691
b10001101 u
b10001101 X
b10001101 p
b10001101 r
b101 !"
b11 }
b10001101 _
b10001101 l
b10001101 d
b11 ^
b11 w
b10000000000000110000000010001101 5
b10000000000000110000000010001101 O
b10000000000000110000000010001101 f
x4"
b10000000000000110000000010001101 +
b10000000000000110000000010001101 6"
b10100 W
b10100 y
#692
b1 E
b11 A
b100 J
b10001101 b
b10001101 |
b10001101 1
b10001101 ;
b10001101 [
b10001101 S
b10001101 j
b10001101 Y
b10001101 i
b10001101 t
04
#693
b11000 W
b11000 y
#696
14
#697
b11 9"
b1100 3
b1100 Z
b1100 x
b1100 z
b1100 ."
b10001101 F"
#698
b10000 V
b10000 {
14"
#699
b10 u
b10 X
b10 p
b10 r
b10 !"
b1 ~
b100 }
b10 _
b10 l
b10 d
b1 c
b100 ^
b100 w
b10010001000001000000000100000010 5
b10010001000001000000000100000010 O
b10010001000001000000000100000010 f
x4"
b10010001000001000000000100000010 +
b10010001000001000000000100000010 6"
b11100 W
b11100 y
#700
b0 u
b0 X
b0 p
b0 r
b10 E
b0 A
b0 J
b10 b
b10 |
b10 1
b10 ;
b10 [
b1 \
b1 k
b1 s
b10010001 `
b10010001 h
b10010001 m
b10 S
b10 j
b10 Y
b10 i
b10 t
04
#701
b111100 u
b111100 X
b111100 p
b111100 r
b1011111 $
b1011111 9
b1011111 a
b1011111 ]
b1011111 q
b111100 T
b111100 o
b111100 #"
b111100 %"
b1011111 U
b1011111 ""
b100000 W
b100000 y
#702
b11 E
b110 A
b100 J
b10011011 b
b10011011 |
b10011011 1
b10011011 ;
b10011011 [
b10011011 S
b10011011 j
b11000100 R
b11000100 n
b11000100 &"
b1000 '"
b10011011 Y
b10011011 i
b10011011 t
#704
14
#705
0>"
bx <"
b0 9"
b1 5"
b10011011 G"
b10000 3
b10000 Z
b10000 x
b10000 z
b10000 ."
#706
b1 8"
bx 3"
b10100 V
b10100 {
04"
#707
b100100 W
b100100 y
#708
04
#712
0e
17
1A"
1.
1/
1*
b1 )
b1 7"
b1 @"
b11 8"
b1 :"
14
#716
04
#720
14
#724
04
#728
14
#732
04
#736
14
#740
04
#744
14
#748
04
#752
14
#756
04
#760
14
b10010001000001000000000100000010100000000000001100000000100011011000000000000010000000000011110010000000000000010000000000000010 (
b10010001000001000000000100000010100000000000001100000000100011011000000000000010000000000011110010000000000000010000000000000010 /"
b10010001000001000000000100000010100000000000001100000000100011011000000000000010000000000011110010000000000000010000000000000010 B"
#764
04
#768
14
#772
04
#776
14
#780
04
#784
14
#788
04
#792
14
#796
04
#800
14
b10010001000001000000000100000010100000000000001100000000100011011000000000000010000000000011110010000000000000010000000100000010 (
b10010001000001000000000100000010100000000000001100000000100011011000000000000010000000000011110010000000000000010000000100000010 /"
b10010001000001000000000100000010100000000000001100000000100011011000000000000010000000000011110010000000000000010000000100000010 B"
#804
04
#808
14
#812
04
#816
14
#820
04
#824
14
#828
04
#832
14
#836
04
#840
14
b10010001000001000000000100000010100000000000001100000000100011011000000000000010000000000011110010000000000001010000000100000010 (
b10010001000001000000000100000010100000000000001100000000100011011000000000000010000000000011110010000000000001010000000100000010 /"
b10010001000001000000000100000010100000000000001100000000100011011000000000000010000000000011110010000000000001010000000100000010 B"
#844
04
#848
14
#852
04
#856
14
#860
04
#864
14
#868
04
#872
14
#876
04
#880
14
b10010001000001000000000100000010100000000000001100000000100011011000000000000010000000000011110010011001000001010000000100000010 (
b10010001000001000000000100000010100000000000001100000000100011011000000000000010000000000011110010011001000001010000000100000010 /"
b10010001000001000000000100000010100000000000001100000000100011011000000000000010000000000011110010011001000001010000000100000010 B"
#884
04
#888
14
#892
04
#896
14
#900
04
#904
14
#908
04
#912
14
#916
04
#920
14
b10010001000001000000000100000010100000000000001100000000100011011000000000000010000000000000000110011001000001010000000100000010 (
b10010001000001000000000100000010100000000000001100000000100011011000000000000010000000000000000110011001000001010000000100000010 /"
b10010001000001000000000100000010100000000000001100000000100011011000000000000010000000000000000110011001000001010000000100000010 B"
#924
04
#928
14
#932
04
#936
14
#940
04
#944
14
#948
04
#952
14
#956
04
#960
14
#964
04
#968
14
#972
04
#976
14
#980
04
#984
14
#988
04
#992
14
#996
04
#1000
14
b10010001000001000000000100000010100000000000001100000000100011011000000000000110000000000000000110011001000001010000000100000010 (
b10010001000001000000000100000010100000000000001100000000100011011000000000000110000000000000000110011001000001010000000100000010 /"
b10010001000001000000000100000010100000000000001100000000100011011000000000000110000000000000000110011001000001010000000100000010 B"
#1004
04
#1008
14
#1012
04
#1016
14
#1020
04
#1024
14
#1028
04
#1032
14
#1036
04
#1040
14
b10010001000001000000000100000010100000000000001100000000100011011000100000000110000000000000000110011001000001010000000100000010 (
b10010001000001000000000100000010100000000000001100000000100011011000100000000110000000000000000110011001000001010000000100000010 /"
b10010001000001000000000100000010100000000000001100000000100011011000100000000110000000000000000110011001000001010000000100000010 B"
#1044
04
#1048
14
#1052
04
#1056
14
#1060
04
#1064
14
#1068
04
#1072
14
#1076
04
#1080
14
b10010001000001000000000100000010100000000000001100000000000000001000100000000110000000000000000110011001000001010000000100000010 (
b10010001000001000000000100000010100000000000001100000000000000001000100000000110000000000000000110011001000001010000000100000010 /"
b10010001000001000000000100000010100000000000001100000000000000001000100000000110000000000000000110011001000001010000000100000010 B"
#1084
04
#1088
14
#1092
04
#1096
14
#1100
04
#1104
14
#1108
04
#1112
14
#1116
04
#1120
14
#1124
04
#1128
14
#1132
04
#1136
14
#1140
04
#1144
14
#1148
04
#1152
14
#1156
04
#1160
14
b10010001000001000000000100000010100000000000001000000000000000001000100000000110000000000000000110011001000001010000000100000010 (
b10010001000001000000000100000010100000000000001000000000000000001000100000000110000000000000000110011001000001010000000100000010 /"
b10010001000001000000000100000010100000000000001000000000000000001000100000000110000000000000000110011001000001010000000100000010 B"
#1164
04
#1168
14
#1172
04
#1176
14
#1180
04
#1184
14
#1188
04
#1192
14
#1196
04
#1200
14
b10010001000001000000000100000010000011000000001000000000000000001000100000000110000000000000000110011001000001010000000100000010 (
b10010001000001000000000100000010000011000000001000000000000000001000100000000110000000000000000110011001000001010000000100000010 /"
b10010001000001000000000100000010000011000000001000000000000000001000100000000110000000000000000110011001000001010000000100000010 B"
#1204
04
#1208
14
#1212
04
#1216
14
#1220
04
#1224
14
#1228
04
#1232
14
#1236
04
#1240
14
#1244
04
#1248
14
#1252
04
#1256
14
#1260
04
#1264
14
#1268
04
#1272
14
#1276
04
#1280
14
#1284
04
#1288
14
#1292
04
#1296
14
#1300
04
#1304
14
#1308
04
#1312
14
#1316
04
#1320
14
#1324
04
#1328
14
#1332
04
#1336
14
#1340
04
#1344
14
#1348
04
#1352
14
#1356
04
#1360
b0 8"
b11 :"
14
0A"
0.
#1361
1>"
b0 <"
b11 ="
#1362
14"
b10010001000001000000000100000010000011000000001000000000000000001000100000000110000000000000000110011001000001010000000100000010 3"
#1363
b101 }
b101 ^
b101 w
b10011001000001010000000100000010 5
b10011001000001010000000100000010 O
b10011001000001010000000100000010 f
x4"
b10011001000001010000000100000010 +
b10011001000001010000000100000010 6"
#1364
b11000100 u
b11000100 X
b11000100 p
b11000100 r
b10011001 `
b10011001 h
b10011001 m
1e
04
#1365
b101000 W
b101000 y
#1366
b0 A
b1 J
b100011 b
b100011 |
b100011 1
b100011 ;
b100011 [
b100011 S
b100011 j
b100011 Y
b100011 i
b100011 t
#1368
07
0/
0*
bx )
bx 7"
bx @"
b0 :"
14
#1369
b1 9"
b10100 3
b10100 Z
b10100 x
b10100 z
b10100 ."
b100011 H"
#1370
b11000 V
b11000 {
14"
#1371
b1 !"
b0 ~
b110 }
b1 _
b1 l
b1 d
b0 c
b110 ^
b110 w
b10001000000001100000000000000001 5
b10001000000001100000000000000001 O
b10001000000001100000000000000001 f
x4"
b10001000000001100000000000000001 +
b10001000000001100000000000000001 6"
b101100 W
b101100 y
#1372
b111100 u
b111100 X
b111100 p
b111100 r
b0 \
b0 k
b0 s
b10001000 `
b10001000 h
b10001000 m
04
#1373
b1011111 u
b1011111 X
b1011111 p
b1011111 r
b0 $
b0 9
b0 a
b0 ]
b0 q
b0 E
b111 A
b111100 b
b111100 |
b111100 1
b111100 ;
b111100 [
b1011111 T
b1011111 o
b1011111 #"
b1011111 %"
b0 U
b0 ""
b111100 S
b111100 j
b111100 Y
b111100 i
b111100 t
b110000 W
b110000 y
#1374
b11 E
b10 J
b1011111 b
b1011111 |
b1011111 1
b1011111 ;
b1011111 [
b1011111 S
b1011111 j
b1011111 Y
b1011111 i
b1011111 t
b10100001 R
b10100001 n
b10100001 &"
b1000 '"
#1376
14
#1377
b10 9"
b1011111 I"
b11000 3
b11000 Z
b11000 x
b11000 z
b11000 ."
#1378
b11100 V
b11100 {
14"
#1379
b0 !"
b10 }
b0 _
b0 l
b0 d
b10 ^
b10 w
b1100000000100000000000000000 5
b1100000000100000000000000000 O
b1100000000100000000000000000 f
x4"
b1100000000100000000000000000 +
b1100000000100000000000000000 6"
b110100 W
b110100 y
#1380
b100 \
b100 k
b100 s
b1100 `
b1100 h
b1100 m
0e
04
#1381
b0 T
b0 o
b0 #"
b0 %"
b100100 W
b100100 y
#1382
b0 R
b0 n
b0 &"
b1000 '"
#1384
14
#1385
0>"
bx <"
b1 9"
b10 5"
b100100 3
b100100 Z
b100100 x
b100100 z
b100100 ."
#1386
b1 8"
bx 3"
b101000 V
b101000 {
04"
#1387
b110000 W
b110000 y
#1388
04
#1392
17
1A"
1.
1/
1*
b10 )
b10 7"
b10 @"
b11 8"
b1 :"
14
